Analyses for a restricted area
…
Create tibble of set counts with extra column in_area, which is TRUE/FALSE whether or not that set is within the area of interest:

sp_set_counts_with_area <- add_in_area(sp_set_counts$set_counts,
                                       area = HG_herring_pred_area)

Each catch count now also has an in_area logical attribute:

dplyr::select(sp_set_counts_with_area, year, station, lat, lon, E_it, C_it, usable,
              standard, in_area)
#> # A tibble: 4,571 x 9
#>     year station   lat   lon  E_it  C_it usable standard in_area
#>    <dbl> <chr>   <dbl> <dbl> <dbl> <dbl> <chr>  <fct>    <lgl>  
#>  1  1995 10D      52.4 -129.  5.02  6.97 Y      Y        TRUE   
#>  2  1995 10G      52.4 -130.  4.92  0    Y      Y        TRUE   
#>  3  1995 10GC     52.3 -130   4.97  0    Y      Y        TRUE   
#>  4  1995 10I      52.4 -130.  4.82  0    Y      Y        TRUE   
#>  5  1995 10L      52.4 -131.  4.82  0    Y      Y        TRUE   
#>  6  1995 10LC     52.3 -131.  4.97  0    Y      Y        TRUE   
#>  7  1995 11E      52.6 -130   4.97  0    Y      Y        TRUE   
#>  8  1995 11H      52.6 -130.  4.97  0    Y      Y        TRUE   
#>  9  1995 11HC     52.7 -131.  4.97  0    Y      Y        TRUE   
#> 10  1995 11J      52.6 -131.  4.92  0    Y      Y        TRUE   
#> # ... with 4,561 more rows
…
Calculate longest time series possible for the area of interest

In Appendix G of the synopsis report we described analyses to calculate as long a time series as possible by combining data from years when only the first 20 hooks were enumerated for each skate (Series A) and from years when all hooks could be enumerated from each skate (Series B); there are overlapping years when all hooks were enumerated and the data are available at the hook-by-hook level. The resulting Series AB applied only to the area north of WCVI, but was tested to see if it was representative of the whole coast.

For stations restricted to the area of interest, here we define Series E to be based on the first 20 hooks from each skate, and Series F to be based on all hooks from each skate. We do a similar analysis as described in the synopsis report to generate the longer Series EF (or just one of Series E and F if there are insufficient data). It is up to the user to generate maps (or movie) of their area of interest to confirm that it makes sense to use all stations with the area. For example, considering an area that reaches further down the west coast of Vancouver Island would not be appropriate since it was not surveyed in some years (Table G.2 of synopsis report).

The calculations are as follows, yielding figure with four plots similar to Figures G.1 and G.2 of the synopsis report (that were for Series A and B):

ser_E_and_F <- calc_iphc_ser_E_and_F(sp_set_counts_with_area)
ser_E_and_F
#> $ser_E
#> # A tibble: 25 x 8
#>     year  Sets num_pos20 I_t20SampleMean I_t20BootMean I_t20BootLow
#>    <dbl> <int>     <int>           <dbl>         <dbl>        <dbl>
#>  1  1997   103        29           1.86          1.86         1.14 
#>  2  1998   118        40           1.81          1.81         1.16 
#>  3  1999   124        46           1.60          1.59         1.05 
#>  4  2000   119        41           1.64          1.64         1.09 
#>  5  2001   125        36           1.55          1.56         1.03 
#>  6  2002   126        31           0.872         0.874        0.553
#>  7  2003   125        41           0.994         0.998        0.641
#>  8  2004   124        37           1.29          1.30         0.850
#>  9  2005   126        38           1.15          1.15         0.761
#> 10  2006   126        28           1.15          1.15         0.711
#> # ... with 15 more rows, and 2 more variables: I_t20BootHigh <dbl>,
#> #   I_t20BootCV <dbl>
…
Then to calculate the longest possible time series:

series_longest <- calc_iphc_ser_EF(ser_E_and_F)
series_longest
#> $ser_longest
#> # A tibble: 27 x 8
#>     year  Sets num_pos20 I_t20SampleMean I_t20BootMean I_t20BootLow
#>    <dbl> <int>     <int>           <dbl>         <dbl>        <dbl>
#>  1  1995    96        26           1.90          1.90         1.13 
#>  2  1996   103        37           1.54          1.54         0.984
#>  3  1997   103        29           1.86          1.86         1.14 
#>  4  1998   118        40           1.81          1.81         1.16 
#>  5  1999   124        46           1.60          1.59         1.05 
#>  6  2000   119        41           1.64          1.64         1.09 
#>  7  2001   125        36           1.55          1.56         1.03 
#>  8  2002   126        31           0.872         0.874        0.553
#>  9  2003   125        41           0.994         0.998        0.641
#> 10  2004   124        37           1.29          1.30         0.850
#> # ... with 17 more rows, and 2 more variables: I_t20BootHigh <dbl>,
#> #   I_t20BootCV <dbl>
…
