Analyses for predators of Haida Gwaii Pacific Herring
…
eafm_res <- iphc_format_for_EAFM(sp_vec_and_combined_skates,
                                 path = path_results,
                                 all_sp_longest) # also saves .csv, and .rds of
                                                 #  all_sp_longest list

eafm_res
#> # A tibble: 810 x 3
#>     Year Indicator                              Value
#>    <dbl> <chr>                                  <dbl>
#>  1  1995 YelloweyeRockfish_IPHC_SurveyCatchRate 1.90 
#>  2  1995 YelloweyeRockfish_IPHC_LowerCI         1.13 
#>  3  1995 YelloweyeRockfish_IPHC_UpperCI         3.17 
#>  4  1996 YelloweyeRockfish_IPHC_SurveyCatchRate 1.54 
#>  5  1996 YelloweyeRockfish_IPHC_LowerCI         0.984
#>  6  1996 YelloweyeRockfish_IPHC_UpperCI         2.42 
#>  7  1997 YelloweyeRockfish_IPHC_SurveyCatchRate 1.86 
#>  8  1997 YelloweyeRockfish_IPHC_LowerCI         1.14 
#>  9  1997 YelloweyeRockfish_IPHC_UpperCI         3.05 
#> 10  1998 YelloweyeRockfish_IPHC_SurveyCatchRate 1.81 
#> # ... with 800 more rows
…
