Analyses for one species
…
# Comment this out to analyse non-yelloweye data:
sp_set_counts <- yelloweye_rockfish

# Uncomment this to analyse non-yelloweye data:
# sp_set_counts <- readRDS(paste0(gsub(" ", "-", sp), ".rds"))

Details for all skates and stations, and hooks returned with bait

Other data sets are already built into the gfiphc package, the main ones are given here for reference.

Locations and effective skate values of stations for the 1995 survey:

setData1995
#> # A tibble: 120 x 5
#>      lat   lon station effSkate usable
#>    <dbl> <dbl> <chr>      <dbl> <chr> 
#>  1  52.4 -129. 10D         5.02 Y     
#>  2  52.4 -130. 10G         4.92 Y     
#>  3  52.3 -130  10GC        4.97 Y     
#>  4  52.4 -130. 10I         4.82 Y     
#>  5  52.4 -131. 10L         4.82 Y     
#>  6  52.3 -131. 10LC        4.97 Y     
#>  7  52.6 -130  11E         4.97 Y     
#>  8  52.6 -130. 11H         4.97 Y     
#>  9  52.7 -131. 11HC        4.97 Y     
#> 10  52.6 -131. 11J         4.92 Y     
#> # ... with 110 more rows

Counts of each species at each station in 1995:

countData1995
#> # A tibble: 1,235 x 4
#>     year station spNameIPHC           specCount
#>    <int> <chr>   <chr>                    <int>
#>  1  1995 10D     Pacific Halibut             38
#>  2  1995 10D     Lingcod                      6
#>  3  1995 10D     Spiny Dogfish               89
#>  4  1995 10D     unident. Skate               1
#>  5  1995 10D     Spotted Ratfish              2
#>  6  1995 10D     Unidentified Shark           1
#>  7  1995 10D     unident. Starfish            2
#>  8  1995 10D     Quillback Rockfish           4
#>  9  1995 10D     Yelloweye Rockfish          35
#> 10  1995 10D     Missing Hook/Gangion       273
#> # ... with 1,225 more rows

Catches at each station from 1996 to 2002:

data1996to2002
#> # A tibble: 8,569 x 13
#>     year station   set   lon   lat depthAvge spCodeIPHC spNameIPHC    catchCount
#>    <dbl>   <dbl> <dbl> <dbl> <dbl>     <dbl>      <dbl> <chr>              <dbl>
#>  1  1996   10011    15  -130  51.4       247          1 Pacific Hali~         15
#>  2  1996   10011    15  -130  51.4       247          2 Arrowtooth F~          5
#>  3  1996   10011    15  -130  51.4       247         27 Sablefish (B~         67
#>  4  1996   10011    15  -130  51.4       247         30 unident. tho~         15
#>  5  1996   10011    15  -130  51.4       247         31 Rougheye Roc~         62
#>  6  1996   10011    15  -130  51.4       247         45 Unident. Roc~          8
#>  7  1996   10011    15  -130  51.4       247         54 Spiny Dogfish          2
#>  8  1996   10011    15  -130  51.4       247         55 unident. Ska~          4
#>  9  1996   10011    15  -130  51.4       247         57 Canary Rockf~          1
#> 10  1996   10011    15  -130  51.4       247         90 Redbanded Ro~          2
#> # ... with 8,559 more rows, and 4 more variables: skates <dbl>,
#> #   hooksObserved <dbl>, usable <chr>, E_it <dbl>

Station details for 2013 survey:

setData2013
#> # A tibble: 170 x 8
#>     year station   lat   lon avgDepth effSkateIPHC E_it20 usable
#>    <int> <chr>   <dbl> <dbl>    <int>        <dbl>  <dbl> <chr> 
#>  1  2013 2001     48.3 -126.       76         5.96   1.19 Y     
#>  2  2013 2002     48.3 -126.       93         5.90   1.19 Y     
#>  3  2013 2003     48.5 -125.       79         5.90   1.19 Y     
#>  4  2013 2004     48.5 -126.       56         5.96   1.20 Y     
#>  5  2013 2005     48.5 -126.       58         6.02   1.20 Y     
#>  6  2013 2006     48.5 -126.      110         5.78   1.16 Y     
#>  7  2013 2007     48.7 -125.       35         5.96   1.20 Y     
#>  8  2013 2008     48.7 -125.       35         5.90   1.20 Y     
#>  9  2013 2009     48.7 -126.       67         5.90   1.19 Y     
#> 10  2013 2010     48.7 -126.       41         5.96   1.20 Y     
#> # ... with 160 more rows

Station details for 2020 survey:

setData2020
#> # A tibble: 197 x 11
#>     year station   lat   lon avgDepth effSkateIPHC E_it20 usable standard
#>    <int> <chr>   <dbl> <dbl>    <int>        <dbl>  <dbl> <chr>  <fct>   
#>  1  2020 2044     50.8 -129.       50         7.95   1.61 Y      Y       
#>  2  2020 2045     50.8 -129.       68         7.95   1.61 Y      Y       
#>  3  2020 2046     51.0 -128.       53         7.95   1.61 Y      Y       
#>  4  2020 2047     51.0 -129.       39         7.95   1.61 Y      Y       
#>  5  2020 2048     51.0 -129.       47         7.95   1.61 Y      Y       
#>  6  2020 2049     51.0 -129.       86         7.95   1.61 Y      Y       
#>  7  2020 2050     51   -130.      131         7.95   1.61 Y      Y       
#>  8  2020 2051     51.2 -128.       58         7.95   1.61 Y      Y       
#>  9  2020 2052     51.2 -128.      106         7.95   1.61 Y      Y       
#> 10  2020 2053     51.2 -129.       56         7.95   1.61 Y      Y       
#> # ... with 187 more rows, and 2 more variables: hooksRetr <dbl>, hooksObs <dbl>

Station details for 2021 survey:

setData2021
#> # A tibble: 232 x 11
#>     year station   lat   lon avgDepth effSkateIPHC E_it20 usable standard
#>    <int> <chr>   <dbl> <dbl>    <int>        <dbl>  <dbl> <chr>  <fct>   
#>  1  2021 2002     48.3 -126.      195         3.98  0.804 Y      Y       
#>  2  2021 2010     48.7 -126.       40         3.98  0.804 Y      Y       
#>  3  2021 2011     48.7 -126.       77         3.98  0.804 Y      Y       
#>  4  2021 2012     48.8 -126.       24         3.98  0.804 Y      Y       
#>  5  2021 2014     48.8 -126.       56         3.98  0.804 Y      Y       
#>  6  2021 2016     49.0 -126.       37         3.93  0.792 Y      Y       
#>  7  2021 2017     49.0 -126.       75         3.98  0.804 Y      Y       
#>  8  2021 2018     49.0 -127.      127         3.93  0.802 Y      Y       
#>  9  2021 2019     49.2 -126.       47         3.98  0.804 Y      Y       
#> 10  2021 2020     49.2 -127.       68         3.98  0.804 Y      Y       
#> # ... with 222 more rows, and 2 more variables: hooksRetr <dbl>, hooksObs <dbl>

Station details regarding expansion stations from 2018 (and some later years):

setDataExpansion
#> # A tibble: 317 x 7
#>    station   lat   lon rca   mpa   mpa_name standard
#>    <chr>   <dbl> <dbl> <fct> <fct> <fct>    <fct>   
#>  1 2336     53.9 -490. N     N     <NA>     N       
#>  2 2337     54.8 -490. N     N     <NA>     N       
#>  3 2338     51.5 -488. N     N     <NA>     N       
#>  4 2339     50.9 -486. N     N     <NA>     N       
#>  5 2340     50.6 -486. N     N     <NA>     N       
#>  6 2341     49.6 -486. N     N     <NA>     N       
#>  7 2342     50.5 -488. N     N     <NA>     N       
#>  8 2001     48.3 -126. N     N     <NA>     Y       
#>  9 2002     48.3 -126. N     N     <NA>     Y       
#> 10 2003     48.5 -125. N     N     <NA>     Y       
#> # ... with 307 more rows

The following data sets are extracted from GFBio but extracted at PBS and then included in the package (using data-raw/sets-skates-hooks-yelloweye.R), which will be run each year to update the data objects.

Station details from GFBio for years not mentioned above:

sets_other_years
#> # A tibble: 2,841 x 15
#>     year tripID  setID station setInTrip  long   lat obsHooksPerSet
#>    <int>  <dbl>  <dbl> <chr>       <dbl> <dbl> <dbl>          <dbl>
#>  1  2003  52040 334550 2007            1 -125.  48.7            795
#>  2  2003  52040 334551 2008            2 -125.  48.7            781
#>  3  2003  52040 334552 2003            3 -125.  48.5            796
#>  4  2003  52040 334553 2004            4 -126.  48.5            797
#>  5  2003  52040 334554 2001            5 -126.  48.3            800
#>  6  2003  52040 334555 2002            6 -126.  48.3            798
#>  7  2003  52040 334556 2006            7 -126.  48.5            802
#>  8  2003  52040 334557 2005            8 -126.  48.5            785
#>  9  2003  52040 334558 2012            9 -126.  48.8            805
#> 10  2003  52040 334559 2009           10 -126.  48.7            806
#> # ... with 2,831 more rows, and 7 more variables: deplHooksPerSet <int>,
#> #   skatesCount <dbl>, effSkateIPHC <dbl>, iphcUsabilityCode <dbl>,
#> #   iphcUsabilityDesc <chr>, usable <chr>, standard <fct>

Skate-level details from GFBio (though such data are not available for years for which data are only available at the set-by-set level):

skates_other_years
#> # A tibble: 18,672 x 16
#>     year tripID   set  setID skate skateID  bait deplHooksPerSkate
#>    <int>  <dbl> <dbl>  <dbl> <dbl>   <dbl> <dbl>             <int>
#>  1  2003  52040     1 334550     1  334634   110                99
#>  2  2003  52040     1 334550     2  334635   110               102
#>  3  2003  52040     1 334550     3  334636   110                99
#>  4  2003  52040     1 334550     4  334637   110                96
#>  5  2003  52040     1 334550     5  334638   110                99
#>  6  2003  52040     1 334550     6  334639   110                97
#>  7  2003  52040     1 334550     7  334640   110               103
#>  8  2003  52040     1 334550     8  334641   110               100
#>  9  2003  52040     2 334551     1  334642   110                91
#> 10  2003  52040     2 334551     2  334643   110                98
#> # ... with 18,662 more rows, and 8 more variables: obsHooksPerSkate <int>,
#> #   firstHook <dbl>, lastHook <int>, hook20 <dbl>, chumDeplHooksPerSkate <int>,
#> #   chumObsHooksPerSkate <int>, obsHooksPerSkate20 <dbl>,
#> #   chumObsHooksPerSkate20 <dbl>

Counts of hooks returned with bait on them, for each set, for all years (note it is a list containing one tibble):

hooks_with_bait
#> $set_counts
#> # A tibble: 4,571 x 12
#>     year station   lat   lon  E_it  N_it   C_it E_it20 N_it20 C_it20 usable
#>    <dbl> <chr>   <dbl> <dbl> <dbl> <dbl>  <dbl>  <dbl>  <dbl>  <dbl> <chr> 
#>  1  1995 10D      52.4 -129.  5.02     0  0         NA     NA     NA Y     
#>  2  1995 10G      52.4 -130.  4.92    54 11.0       NA     NA     NA Y     
#>  3  1995 10GC     52.3 -130   4.97    27  5.43      NA     NA     NA Y     
#>  4  1995 10I      52.4 -130.  4.82     6  1.25      NA     NA     NA Y     
#>  5  1995 10L      52.4 -131.  4.82    44  9.13      NA     NA     NA Y     
#>  6  1995 10LC     52.3 -131.  4.97   278 55.9       NA     NA     NA Y     
#>  7  1995 11E      52.6 -130   4.97     3  0.604     NA     NA     NA Y     
#>  8  1995 11H      52.6 -130.  4.97   175 35.2       NA     NA     NA Y     
#>  9  1995 11HC     52.7 -131.  4.97     7  1.41      NA     NA     NA Y     
#> 10  1995 11J      52.6 -131.  4.92    15  3.05      NA     NA     NA Y     
#> # ... with 4,561 more rows, and 1 more variable: standard <fct>

Counts of Yelloweye Rockfish on each set for all years (note it is a list containing one tibble):

yelloweye_rockfish
#> $set_counts
#> # A tibble: 4,571 x 12
#>     year station   lat   lon  E_it  N_it  C_it E_it20 N_it20 C_it20 usable
#>    <dbl> <chr>   <dbl> <dbl> <dbl> <dbl> <dbl>  <dbl>  <dbl>  <dbl> <chr> 
#>  1  1995 10D      52.4 -129.  5.02    35  6.97     NA     NA     NA Y     
#>  2  1995 10G      52.4 -130.  4.92     0  0        NA     NA     NA Y     
#>  3  1995 10GC     52.3 -130   4.97     0  0        NA     NA     NA Y     
#>  4  1995 10I      52.4 -130.  4.82     0  0        NA     NA     NA Y     
#>  5  1995 10L      52.4 -131.  4.82     0  0        NA     NA     NA Y     
#>  6  1995 10LC     52.3 -131.  4.97     0  0        NA     NA     NA Y     
#>  7  1995 11E      52.6 -130   4.97     0  0        NA     NA     NA Y     
#>  8  1995 11H      52.6 -130.  4.97     0  0        NA     NA     NA Y     
#>  9  1995 11HC     52.7 -131.  4.97     0  0        NA     NA     NA Y     
#> 10  1995 11J      52.6 -131.  4.92     0  0        NA     NA     NA Y     
#> # ... with 4,561 more rows, and 1 more variable: standard <fct>

See ?<dataset> for details of each, and data(package = "gfiphc") for other data sets. Notation such as E_it20 matches the write-up in the Groundfish Synopsis report.

The formats are different to each other due to the data that are available. For example, there are no hooksObserved values available for 1995 and 2013, which will complicate consideration of hook competition for those years. setDataExpansion is needed to identify stations in the expanded grid (that were not fished in previous years).

Look at the data for the species of interest, which combines all the data for the species (built-in data sets plus data extracted from GFBio):

sp_set_counts
#> $set_counts
#> # A tibble: 4,571 x 12
#>     year station   lat   lon  E_it  N_it  C_it E_it20 N_it20 C_it20 usable
#>    <dbl> <chr>   <dbl> <dbl> <dbl> <dbl> <dbl>  <dbl>  <dbl>  <dbl> <chr> 
#>  1  1995 10D      52.4 -129.  5.02    35  6.97     NA     NA     NA Y     
#>  2  1995 10G      52.4 -130.  4.92     0  0        NA     NA     NA Y     
#>  3  1995 10GC     52.3 -130   4.97     0  0        NA     NA     NA Y     
#>  4  1995 10I      52.4 -130.  4.82     0  0        NA     NA     NA Y     
#>  5  1995 10L      52.4 -131.  4.82     0  0        NA     NA     NA Y     
#>  6  1995 10LC     52.3 -131.  4.97     0  0        NA     NA     NA Y     
#>  7  1995 11E      52.6 -130   4.97     0  0        NA     NA     NA Y     
#>  8  1995 11H      52.6 -130.  4.97     0  0        NA     NA     NA Y     
#>  9  1995 11HC     52.7 -131.  4.97     0  0        NA     NA     NA Y     
#> 10  1995 11J      52.6 -131.  4.92     0  0        NA     NA     NA Y     
#> # ... with 4,561 more rows, and 1 more variable: standard <fct>
…
So use filter(..., standard == "Y", usable == "Y") for analyses (to also include only the usable stations).

Calculate longest time series possible for the full coast

In Appendix G of the synopsis report we described analyses to calculate as long a time series as possible by combining data from years when only the first 20 hooks were enumerated for each skate (Series A) with data from years when all hooks could be enumerated from each skate (Series B); there are overlapping years when all hooks were enumerated and the data are available at the hook-by-hook level. The resulting Series AB applies only to the area north of WCVI, but was tested to see if it was representative of the whole coast by also calculating Series C and D.

The function calc_iphc_full_res() does all the calculations in one step and saves all the output. See ?calc_iphc_full_res for full details of the output, but basically $ser_longest is the longest time series that can be made for the species, with $full_coast indicating whether it can be considered representative of the full coast. Series A, B, C, and D are also given, along with geometric means and the test results comparing scaled series.

series_ABCD_full <- calc_iphc_full_res(sp_set_counts$set_counts)
series_ABCD_full
#> $ser_longest
#> # A tibble: 27 x 8
#>     year  Sets num_pos20 I_t20SampleMean I_t20BootMean I_t20BootLow
#>    <dbl> <int>     <int>           <dbl>         <dbl>        <dbl>
#>  1  1995   111        34           2.35          2.36         1.48 
#>  2  1996   120        47           1.95          1.95         1.32 
#>  3  1997   121        41           2.31          2.32         1.57 
#>  4  1998   128        44           1.85          1.85         1.22 
#>  5  1999   134        51           1.73          1.72         1.17 
#>  6  2000   129        46           1.75          1.74         1.21 
#>  7  2001   135        41           1.77          1.77         1.21 
#>  8  2002   135        34           0.917         0.918        0.598
#>  9  2003   134        45           1.07          1.08         0.728
#> 10  2004   132        41           1.30          1.31         0.880
#> # ... with 17 more rows, and 2 more variables: I_t20BootHigh <dbl>,
#> #   I_t20BootCV <dbl>
#> 
#> $type
#> [1] "AB"
#> 
#> $full_coast
#> [1] TRUE
#> 
#> $ser_all
#> $ser_all$ser_A
#> # A tibble: 25 x 8
#>     year  Sets num_pos20 I_t20SampleMean I_t20BootMean I_t20BootLow
#>    <dbl> <int>     <int>           <dbl>         <dbl>        <dbl>
#>  1  1997   121        41           2.31          2.32         1.57 
#>  2  1998   128        44           1.85          1.85         1.22 
#>  3  1999   134        51           1.73          1.72         1.17 
#>  4  2000   129        46           1.75          1.74         1.21 
#>  5  2001   135        41           1.77          1.77         1.21 
#>  6  2002   135        34           0.917         0.918        0.598
#>  7  2003   134        45           1.07          1.08         0.728
#>  8  2004   132        41           1.30          1.31         0.880
#>  9  2005   135        42           1.17          1.17         0.791
#> 10  2006   135        32           1.16          1.17         0.743
#> # ... with 15 more rows, and 2 more variables: I_t20BootHigh <dbl>,
#> #   I_t20BootCV <dbl>
…
#>  6  2008   167      63         0.987       0.986      0.670       1.50 
#>  7  2009   168      73         1.09        1.09       0.779       1.53 
#>  8  2010   170      67         1.28        1.28       0.879       1.98 
#>  9  2011   168      64         0.948       0.952      0.668       1.36 
#> 10  2012   170      50         0.891       0.895      0.608       1.34 
#> 11  2014   170      62         0.600       0.602      0.422       0.895
#> 12  2015   170      55         0.594       0.593      0.383       1.09 
#> 13  2016   167      58         0.895       0.895      0.576       1.50 
#> 14  2017   165      51         0.900       0.899      0.535       1.63 
#> 15  2018   166      53         0.686       0.686      0.457       1.09 
#> 16  2019   167      57         0.691       0.692      0.447       1.19 
#> # ... with 1 more variable: I_tBootCV <dbl>
#> 
#> $ser_all$ser_D
#> # A tibble: 21 x 8
#>     year  Sets num_pos20 I_t20SampleMean I_t20BootMean I_t20BootLow
#>    <dbl> <int>     <int>           <dbl>         <dbl>        <dbl>
#>  1  1999   168        61           1.55          1.55         1.09 
#>  2  2001   170        50           1.64          1.64         1.16 
#>  3  2002   170        40           0.798         0.799        0.545
#>  4  2003   169        51           0.910         0.914        0.629
#>  5  2004   167        50           1.16          1.16         0.817
#>  6  2005   170        51           1.02          1.02         0.720
#>  7  2006   169        39           0.996         0.998        0.643
#>  8  2007   170        38           0.921         0.920        0.610
#>  9  2008   167        37           1.07          1.06         0.694
#> 10  2009   168        49           1.21          1.22         0.851
#> # ... with 11 more rows, and 2 more variables: I_t20BootHigh <dbl>,
#> #   I_t20BootCV <dbl>
…
